{
  "name": "project",
  "base": "PersistedModel",
  "idInjection": false,
  "options": {
    "validateUpsert": true
  },
  "mysql": {
    "table": "project"
  },
  "properties": {
    "id": {
      "type": "number",
      "id": true,
      "generated": true,
      "mysql": {
        "columnName": "project_id"
      }
    },
    "name": {
      "type": "string",
      "mysql": {
        "columnName": "name"
      }
    },
    "description": {
      "type": "string",
      "length": 5000,
      "mysql": {
        "columnName": "description",
        "dataType": "text"
      }
    },
    "created": {
      "type": "date"
    },
    "lastUpdated": {
      "type": "date"
    }
  },
  "validations": [],
  "relations": {
    "users": {
      "type": "hasMany",
      "model": "user",
      "foreignKey": "userId",
      "through": "projectUser"
    }
  },
  "acls": [],
  "methods": {}
}
